[
    {	"userName":"vigucool",
      "message": "Ilove Html"
     
      },

  {
"userName":"Gust",
      "message": "Ilove java"
     
      },
{"userName":"Baba",
      "message": "Please explain JS"
     
      }
  ]
